Department of Energy (DOE) Budgetary Requests and Allocations
…
Research Design

This research design is longitudinal and observational. No experiments are carried out. Rather, the changes in the DOE R&D budget (total and specific to renewable energy) were assessed over time, as were the independent variables considered (including overall Congressional spending, crude oil prices, inflation, and total energy consumption).

Summary of the Dependent Variable

Below is a broad overview of the total DOE budget directed toward Energy R&D, displayed in millions of 2020$, over the agency’s 45-year history. The x-axis begins at the year 1978, which was when the DOE was established, and continues up until the most recent complete fiscal year, 2022. The datapoint entitled “2009 ARPA” reflects funding for ERD3 from the American Recovery and Reinvestment Act (ARPA) of 2009.

library(tidyverse)
library(ggplot2)

doe_rnd_total <- read_csv("gov50milestone3.csv")
doe_rnd_total

# A tibble: 52 × 80
   fiscal_year total…¹ re_to…² presi…³ presi…⁴ house…⁵ senat…⁶ party…⁷
   <chr>         <dbl>   <dbl> <chr>   <chr>   <chr>   <chr>   <chr>  
 1 <NA>            NA      NA  <NA>    <NA>    <NA>    <NA>    <NA>   
 2 <NA>            NA      NA  <NA>    <NA>    <NA>    <NA>    <NA>   
 3 <NA>            NA      NA  <NA>    <NA>    <NA>    <NA>    <NA>   
 4 <NA>            NA      NA  <NA>    <NA>    <NA>    <NA>    <NA>   
 5 <NA>            NA      NA  <NA>    <NA>    <NA>    <NA>    <NA>   
 6 1978          9859.   2172. Carter  Democr… Democr… Democr… Unified
 7 1979          9661.   2540. Carter  Democr… Democr… Democr… Unified
 8 1980          9318.   2486  Carter  Democr… Democr… Democr… Unified
 9 1981          8587.   2210. Carter  Democr… Democr… Democr… Unified
10 1982          5506.   1002. Reagan  Republ… Democr… Republ… Divided
# … with 42 more rows, 72 more variables: cong <chr>, ...10 <chr>,
#   ...11 <dbl>, ...12 <lgl>, ...13 <lgl>, ...14 <lgl>, ...15 <lgl>,
#   ...16 <lgl>, ...17 <lgl>, ...18 <lgl>, ...19 <lgl>, ...20 <lgl>,
#   ...21 <lgl>, ...22 <lgl>, ...23 <lgl>, ...24 <lgl>, ...25 <lgl>,
#   ...26 <lgl>, ...27 <lgl>, ...28 <lgl>, ...29 <lgl>, ...30 <lgl>,
#   ...31 <lgl>, ...32 <lgl>, ...33 <lgl>, ...34 <lgl>, ...35 <lgl>,
#   ...36 <lgl>, ...37 <lgl>, ...38 <lgl>, ...39 <lgl>, …
…
ggsave("total_doe_rnd_with_re_presparty.png", width = 4, height = 4)

Figure 4: Total DOE Energy R&D (gray) and Renewable Energy R&D (colored) Investments by Fiscal Year, 1978–2022, color-coded based on the party of the President in power at the time.

Rather than solely applying color codes based on the party of the president, the DOE’s overall budget for energy R&D can also be analyzed with respect to the partisan composition of the president as well as both chambers of Congress. In the chart below, a Democratic trifecta (Democratic president, Senate, and House) is colored in dark blue, a 2:1 Democratic composition (out of the president, Senate, and House, two entities are controlled by Democrats) in light blue, a 2:1 Republican composition in light red, and a Republican trifecta in dark red.

# Total DOE R&D, colored by Congressional and Presidential control

divided_vs_unified_data <- read_csv("code_for_unified_vs_divided_gov.csv", show_col_types = "FALSE")
divided_vs_unified_data

# A tibble: 60 × 10
   fiscal_year total_…¹ re_rnd Presi…² Presi…³ House…⁴ Senat…⁵ Party…⁶
   <chr>       <chr>    <chr>  <chr>   <chr>   <chr>   <chr>   <chr>  
 1 1978        9859.26… 2172.… Carter  Democr… Democr… Democr… Unified
 2 1979        9660.62… 2539.… Carter  Democr… Democr… Democr… Unified
 3 1980        9317.87… 2486.0 Carter  Democr… Democr… Democr… Unified
 4 1981        8587.04… 2209.… Carter  Democr… Democr… Democr… Unified
 5 1982        5505.53… 1001.… Reagan  Republ… Democr… Republ… Divided
 6 1983        4152.44… 723.5… Reagan  Republ… Democr… Republ… Divided
 7 1984        3853.49… 581.3… Reagan  Republ… Democr… Republ… Divided
 8 1985        3370.34… 560.9… Reagan  Republ… Democr… Republ… Divided
 9 1986        2972.37… 448.5… Reagan  Republ… Democr… Republ… Divided
10 1987        2538.03… 377.7… Reagan  Republ… Democr… Republ… Divided
# … with 50 more rows, 2 more variables: `Congress #` <chr>,
#   divided_vs_unified <dbl>, and abbreviated variable names
#   ¹​total_doe_rnd, ²​President, ³​`President Party`,
#   ⁴​`House Majority`, ⁵​`Senate Majority`, ⁶​`Party Government`
…
ggsave("re_doe_rnd_by_pres_and_cong.png", width = 4, height = 4)

Figure 6: Total DOE Energy R&D (gray) and Renewable Energy R&D (colored) Investments by Fiscal Year, 1978–2022, color-coded based on the partisan makeup of the Presidency and both chambers of Congress.

Hypothesis Tests

To corroborate the previous visually-presented graphic results, permutation hypothesis tests were also conducted to gauge if there are any substantial differences in total DOE R&D budget and R&D budget allocated toward renewable energy based upon whether the President belonged to the Democratic or Republican Party, as well as incorporate the partisan makeup of Congress as a factor.

set.seed(02138)
library(infer)

doe_rnd_total_presbinary <- read_csv("gov50milestone4binary.csv")
doe_rnd_total_presbinary

# A tibble: 47 × 255
   fiscal_year total…¹ re_to…² presi…³ presi…⁴ house…⁵ senat…⁶ party…⁷
   <chr>         <dbl>   <dbl> <chr>     <dbl> <chr>   <chr>   <chr>  
 1 1978          9859.   2172. Carter        1 Democr… Democr… Unified
 2 1979          9661.   2540. Carter        1 Democr… Democr… Unified
 3 1980          9318.   2486  Carter        1 Democr… Democr… Unified
 4 1981          8587.   2210. Carter        1 Democr… Democr… Unified
 5 1982          5506.   1002. Reagan        0 Democr… Republ… Divided
 6 1983          4152.    724. Reagan        0 Democr… Republ… Divided
 7 1984          3853.    581. Reagan        0 Democr… Republ… Divided
 8 1985          3370.    561. Reagan        0 Democr… Republ… Divided
 9 1986          2972.    449. Reagan        0 Democr… Republ… Divided
10 1987          2538.    378. Reagan        0 Democr… Republ… Divided
# … with 37 more rows, 247 more variables: cong <chr>, ...10 <chr>,
#   ...11 <dbl>, ...12 <lgl>, ...13 <lgl>, ...14 <lgl>, ...15 <lgl>,
#   ...16 <lgl>, ...17 <lgl>, ...18 <lgl>, ...19 <lgl>, ...20 <lgl>,
#   ...21 <lgl>, ...22 <lgl>, ...23 <lgl>, ...24 <lgl>, ...25 <lgl>,
#   ...26 <lgl>, ...27 <lgl>, ...28 <lgl>, ...29 <lgl>, ...30 <lgl>,
#   ...31 <lgl>, ...32 <lgl>, ...33 <lgl>, ...34 <lgl>, ...35 <lgl>,
#   ...36 <lgl>, ...37 <lgl>, ...38 <lgl>, ...39 <lgl>, …
…
Here, this Pr(>F) value is approximately 0.0002, which is substantially below \(\alpha = 0.05\), which supports rejecting the null hypothesis of no difference in means between the DOE R&D budget directed toward renewable energy based on the party makeup of Congress and the Presidency. Said another way, it seems that the partisan makeup of Congress and the Presidency has a substantial impact on the DOE R&D budget spent on renewable energy.

# Load in additional datasets to be joined to the previous one

# read in previous dataset, but for sake of merging fiscal years during `join()`, take out the 2009 ARPA data point
no_arpa <- read_csv("gov50milestone4binary_no_arpa.csv")
no_arpa_complete <- no_arpa |>
  filter(fiscal_year %in% c(1978:2022))
no_arpa_complete

# A tibble: 45 × 255
   fiscal_year total…¹ re_to…² presi…³ presi…⁴ house…⁵ senat…⁶ party…⁷
         <dbl>   <dbl>   <dbl> <chr>     <dbl> <chr>   <chr>   <chr>  
 1        1978   9859.   2172. Carter        1 Democr… Democr… Unified
 2        1979   9661.   2540. Carter        1 Democr… Democr… Unified
 3        1980   9318.   2486  Carter        1 Democr… Democr… Unified
 4        1981   8587.   2210. Carter        1 Democr… Democr… Unified
 5        1982   5506.   1002. Reagan        0 Democr… Republ… Divided
 6        1983   4152.    724. Reagan        0 Democr… Republ… Divided
 7        1984   3853.    581. Reagan        0 Democr… Republ… Divided
 8        1985   3370.    561. Reagan        0 Democr… Republ… Divided
 9        1986   2972.    449. Reagan        0 Democr… Republ… Divided
10        1987   2538.    378. Reagan        0 Democr… Republ… Divided
# … with 35 more rows, 247 more variables: cong <chr>, ...10 <lgl>,
#   ...11 <dbl>, ...12 <lgl>, ...13 <lgl>, ...14 <lgl>, ...15 <lgl>,
#   ...16 <lgl>, ...17 <lgl>, ...18 <lgl>, ...19 <lgl>, ...20 <lgl>,
#   ...21 <lgl>, ...22 <lgl>, ...23 <lgl>, ...24 <lgl>, ...25 <lgl>,
#   ...26 <lgl>, ...27 <lgl>, ...28 <lgl>, ...29 <lgl>, ...30 <lgl>,
#   ...31 <lgl>, ...32 <lgl>, ...33 <lgl>, ...34 <lgl>, ...35 <lgl>,
#   ...36 <lgl>, ...37 <lgl>, ...38 <lgl>, ...39 <lgl>, …

# csv for Congressional spending
congressional_spending <- read_csv("congressional_spending.csv") 
congressional_spending_complete <- congressional_spending |>
  filter(fiscal_year %in% c(1978:2022))
congressional_spending_complete

# A tibble: 44 × 6
   fiscal_year outlays outlays_frac_of_gdp outlays_d…¹ outla…² nonde…³
         <dbl>   <dbl>               <dbl>       <dbl>   <dbl>   <dbl>
 1        1978    459.                20.2        219.     9.6    114.
 2        1979    504                 19.6        240      9.4    123.
 3        1980    591.                21.2        276.     9.9    142.
 4        1981    678.                21.6        308.     9.8    150.
 5        1982    746.                22.5        326      9.8    140 
 6        1983    808.                22.9        353.    10      143.
 7        1984    852.                21.6        379.     9.6    151.
 8        1985    946.                22.2        416.     9.7    163.
 9        1986    990.                21.9        438.     9.7    165.
10        1987   1004                 21.1        444.     9.3    162.
# … with 34 more rows, and abbreviated variable names
#   ¹​outlays_discretionary, ²​outlays_discretionary_frac_of_gdp,
#   ³​nondefense_discretionary_outlay

# csv for crude oil prices
crude_oil_prices <- read_csv("crude_oil_prices.csv")
crude_oil_prices_complete <- crude_oil_prices |>
  filter(fiscal_year %in% c(1978:2022))
crude_oil_prices_complete

# A tibble: 45 × 255
   Entity Code      Year fisca…¹ crude…² ...6  ...7  ...8  ...9  ...10
   <chr>  <chr>    <dbl>   <dbl>   <dbl> <lgl> <lgl> <lgl> <lgl> <lgl>
 1 World  OWID_WRL  1977    1978    87.5 NA    NA    NA    NA    NA   
 2 World  OWID_WRL  1978    1979    88.2 NA    NA    NA    NA    NA   
 3 World  OWID_WRL  1979    1980   199.  NA    NA    NA    NA    NA   
 4 World  OWID_WRL  1980    1981   232.  NA    NA    NA    NA    NA   
 5 World  OWID_WRL  1981    1982   226.  NA    NA    NA    NA    NA   
 6 World  OWID_WRL  1982    1983   207.  NA    NA    NA    NA    NA   
 7 World  OWID_WRL  1983    1984   186.  NA    NA    NA    NA    NA   
 8 World  OWID_WRL  1984    1985   181.  NA    NA    NA    NA    NA   
 9 World  OWID_WRL  1985    1986   173.  NA    NA    NA    NA    NA   
10 World  OWID_WRL  1986    1987    90.8 NA    NA    NA    NA    NA   
# … with 35 more rows, 245 more variables: ...11 <lgl>, ...12 <lgl>,
#   ...13 <lgl>, ...14 <lgl>, ...15 <lgl>, ...16 <lgl>, ...17 <lgl>,
#   ...18 <lgl>, ...19 <lgl>, ...20 <lgl>, ...21 <lgl>, ...22 <lgl>,
#   ...23 <lgl>, ...24 <lgl>, ...25 <lgl>, ...26 <lgl>, ...27 <lgl>,
#   ...28 <lgl>, ...29 <lgl>, ...30 <lgl>, ...31 <lgl>, ...32 <lgl>,
#   ...33 <lgl>, ...34 <lgl>, ...35 <lgl>, ...36 <lgl>, ...37 <lgl>,
#   ...38 <lgl>, ...39 <lgl>, ...40 <lgl>, ...41 <lgl>, …

# csv for inflation
inflation <- read_csv("inflation.csv")
inflation_complete <- inflation |>
  filter(fiscal_year %in% c(1978:2022)) 
inflation_complete

# A tibble: 45 × 5
    year fiscal_year inflation ...4  ...5 
   <dbl>       <dbl>     <dbl> <lgl> <lgl>
 1  1977        1978      6.50 NA    NA   
 2  1978        1979      7.63 NA    NA   
 3  1979        1980     11.3  NA    NA   
 4  1980        1981     13.5  NA    NA   
 5  1981        1982     10.3  NA    NA   
 6  1982        1983      6.13 NA    NA   
 7  1983        1984      3.21 NA    NA   
 8  1984        1985      4.30 NA    NA   
 9  1985        1986      3.55 NA    NA   
10  1986        1987      1.90 NA    NA   
# … with 35 more rows

# csv for energy consumption
energy_consumption_usa <- read_csv("energy_consumption_usa.csv", show_col_types = "FALSE")
energy_consumption_usa_complete <- energy_consumption_usa |>
  filter(fiscal_year %in% c(1978:2022))
energy_consumption_usa_complete

# A tibble: 45 × 3
    year fiscal_year energy_consump
   <dbl>       <dbl>          <dbl>
 1  1977        1978         20896.
 2  1978        1979         21359.
 3  1979        1980         21584.
 4  1980        1981         20752.
 5  1981        1982         20138.
 6  1982        1983         19318.
 7  1983        1984         19251.
 8  1984        1985         20236.
 9  1985        1986         20184.
10  1986        1987         20372.
# … with 35 more rows

# csv for divided vs. unified government
divided_vs_unified <- read_csv("code_for_unified_vs_divided_gov.csv", show_col_types = "FALSE")
divided_vs_unified_complete <- divided_vs_unified |>
  filter(fiscal_year %in% c(1978:2022)) 
divided_vs_unified_complete 

# A tibble: 45 × 10
   fiscal_year total_…¹ re_rnd Presi…² Presi…³ House…⁴ Senat…⁵ Party…⁶
   <chr>       <chr>    <chr>  <chr>   <chr>   <chr>   <chr>   <chr>  
 1 1978        9859.26… 2172.… Carter  Democr… Democr… Democr… Unified
 2 1979        9660.62… 2539.… Carter  Democr… Democr… Democr… Unified
 3 1980        9317.87… 2486.0 Carter  Democr… Democr… Democr… Unified
 4 1981        8587.04… 2209.… Carter  Democr… Democr… Democr… Unified
 5 1982        5505.53… 1001.… Reagan  Republ… Democr… Republ… Divided
 6 1983        4152.44… 723.5… Reagan  Republ… Democr… Republ… Divided
 7 1984        3853.49… 581.3… Reagan  Republ… Democr… Republ… Divided
 8 1985        3370.34… 560.9… Reagan  Republ… Democr… Republ… Divided
 9 1986        2972.37… 448.5… Reagan  Republ… Democr… Republ… Divided
10 1987        2538.03… 377.7… Reagan  Republ… Democr… Republ… Divided
# … with 35 more rows, 2 more variables: `Congress #` <chr>,
#   divided_vs_unified <dbl>, and abbreviated variable names
#   ¹​total_doe_rnd, ²​President, ³​`President Party`,
#   ⁴​`House Majority`, ⁵​`Senate Majority`, ⁶​`Party Government`

# Join datasets together 

# 1 additional variable 
president_party_plus_1var <- inner_join(x = no_arpa_complete, 
                                        y = congressional_spending_complete, 
                                        by = "fiscal_year")
# president party along with 1) congressional spending outlays and 2) outlays as fraction of GDP
president_party_plus_1var |>
  inner_join(congressional_spending_complete) |>
  select(fiscal_year, total_doe_rnd, president_party, outlays, outlays_frac_of_gdp)

# A tibble: 44 × 5
   fiscal_year total_doe_rnd president_party outlays outlays_frac_of…¹
         <dbl>         <dbl>           <dbl>   <dbl>             <dbl>
 1        1978         9859.               1    459.              20.2
 2        1979         9661.               1    504               19.6
 3        1980         9318.               1    591.              21.2
 4        1981         8587.               1    678.              21.6
 5        1982         5506.               0    746.              22.5
 6        1983         4152.               0    808.              22.9
 7        1984         3853.               0    852.              21.6
 8        1985         3370.               0    946.              22.2
 9        1986         2972.               0    990.              21.9
10        1987         2538.               0   1004               21.1
# … with 34 more rows, and abbreviated variable name
#   ¹​outlays_frac_of_gdp

# 2 additional variables
president_party_plus_2var <- inner_join(x = president_party_plus_1var, 
                                        y = crude_oil_prices_complete, 
                                        by = "fiscal_year") 
president_party_plus_2var |>
  inner_join(crude_oil_prices_complete) |>
  select(fiscal_year, total_doe_rnd, president_party, outlays, outlays_frac_of_gdp, crude_oil_prices)

# A tibble: 44 × 6
   fiscal_year total_doe_rnd president_party outlays outlays…¹ crude…²
         <dbl>         <dbl>           <dbl>   <dbl>     <dbl>   <dbl>
 1        1978         9859.               1    459.      20.2    87.5
 2        1979         9661.               1    504       19.6    88.2
 3        1980         9318.               1    591.      21.2   199. 
 4        1981         8587.               1    678.      21.6   232. 
 5        1982         5506.               0    746.      22.5   226. 
 6        1983         4152.               0    808.      22.9   207. 
 7        1984         3853.               0    852.      21.6   186. 
 8        1985         3370.               0    946.      22.2   181. 
 9        1986         2972.               0    990.      21.9   173. 
10        1987         2538.               0   1004       21.1    90.8
# … with 34 more rows, and abbreviated variable names
#   ¹​outlays_frac_of_gdp, ²​crude_oil_prices

# 3 additional variables
president_party_plus_3var <- inner_join(x = president_party_plus_2var, 
                                        y = inflation_complete, 
                                        by = "fiscal_year") 
president_party_plus_3var |>
  inner_join(inflation_complete) |>
  select(fiscal_year, total_doe_rnd, president_party, outlays, outlays_frac_of_gdp, crude_oil_prices, inflation)

# A tibble: 44 × 7
   fiscal_year total_doe_rnd preside…¹ outlays outla…² crude…³ infla…⁴
         <dbl>         <dbl>     <dbl>   <dbl>   <dbl>   <dbl>   <dbl>
 1        1978         9859.         1    459.    20.2    87.5    6.50
 2        1979         9661.         1    504     19.6    88.2    7.63
 3        1980         9318.         1    591.    21.2   199.    11.3 
 4        1981         8587.         1    678.    21.6   232.    13.5 
 5        1982         5506.         0    746.    22.5   226.    10.3 
 6        1983         4152.         0    808.    22.9   207.     6.13
 7        1984         3853.         0    852.    21.6   186.     3.21
 8        1985         3370.         0    946.    22.2   181.     4.30
 9        1986         2972.         0    990.    21.9   173.     3.55
10        1987         2538.         0   1004     21.1    90.8    1.90
# … with 34 more rows, and abbreviated variable names
#   ¹​president_party, ²​outlays_frac_of_gdp, ³​crude_oil_prices,
#   ⁴​inflation
…
